{
  "AWSTemplateFormatVersion": "2010-09-09",
  "Description": "Provision VPN instances (across two AZs)",
  "Parameters" : {
    "environment": {
      "Type": "String"
    },
    "product": {
      "Type": "String"
    },
    "techContact": {
      "Type": "String"
    },
    "costCenter": {
      "Type": "String"
    },
    "regionIata": {
      "Type": "String"
    },
    "sshUserKeys": {
      "Type" : "CommaDelimitedList"
    },
    "VPC" : {
      "Description" : "VPC ID for the VPN instances (required for creating VPN security group).",
      "Type" : "String"
    },
    "VpcCidr" : {
      "Description" : "VPC CIDR block (required for creating VPC security group rules for VPNing traffic).",
      "Type" : "String"
    },
    "PublicSubnet1" : {
      "Description" : "Subnet ID for the public subnet to launch the first VPN instance into.",
      "Type" : "String"
    },
    "PublicSubnet2" : {
      "Description" : "Subnet ID for the public subnet to launch the second VPN instance into.",
      "Type" : "String"
    },
    "PrivateRouteTable1" : {
      "Description" : "Route Table ID to associate default route with VPN instance 1.",
      "Type" : "String"
    },
    "PrivateRouteTable2" : {
      "Description" : "Route Table ID to associate default route with VPN instance 2.",
      "Type" : "String"
    },
    "VPNNodeInstanceType" : {
      "Description" : "Instance type for VPN nodes.",
      "Type" : "String",
      "Default" : "m1.small",
      "AllowedValues" : [ "t1.micro","m1.small","m1.medium","m1.large","m1.xlarge","m2.xlarge","m2.2xlarge","m2.4xlarge","c1.medium","c1.xlarge","cc1.4xlarge","cc2.8xlarge","cg1.4xlarge"],
      "ConstraintDescription" : "must be a valid EC2 instance type."
    },
    "PingTimeout" : {
      "Description" : "The number of seconds to wait for each ping response before determining that the ping has failed",
      "Type" : "String",
      "Default" : "1"
    },
    "WaitBetweenPings" : {
      "Description" : "The number of seconds to wait between health checks",
      "Type" : "String",
      "Default" : "2"
    },
    "WaitForInstanceRestart" : {
      "Description" : "The number of seconds to wait for alternate VPN Node to restart before resuming health checks again",
      "Type" : "String",
      "Default" : "120"
    },
    "appDynamicEnabled" : {
      "Type": "String"
    },
    "appDS3" : {
      "Type": "String"
    },
    "appDAppName": {
      "Type": "String"
    },
    "appDTierName": {
      "Type": "String"
    },
    "appDS3Url": {
      "Type": "String"
    },
    "appDContHost": {
      "Type": "String"
    },
    "appDAccessKey": {
      "Type": "String"
    },
    "appDVersionNo": {
      "Type": "String"
    },
    "appDAcctName": {
      "Type": "String"
    },
    "vpcSshKeyName": {
      "Type": "String"
    },
    "appDContPort": {
      "Type": "String"
    },
    "appDContSslEnabled": {
      "Type": "String"
    },
    "vpnEventSubscriptionEnabled": {
      "Type": "String",
      "Description": "Enable or disable nat autoscaling event subscription",
      "Default": "false"
    },
    "remoteRegionIata": {
      "Type": "String"
    },
    "remoteVpcCidr": {
      "Type": "String"
    },
    "dnsNameExt": {
      "Type": "String"
    },
    "hostedZoneId": {
      "Type": "String"
    }
  },

  "Mappings" : {
    "AWSVPNAMI" : {
      "us-east-1"      : { "AMI" : "ami-c02b04a8" },
      "us-west-2"      : { "AMI" : "ami-2dae821d" },
      "us-west-1"      : { "AMI" : "ami-67a54423" },
      "eu-west-1"      : { "AMI" : "ami-cb7de3bc" },
      "ap-southeast-1" : { "AMI" : "ami-b098a9e2" },
      "ap-southeast-2" : { "AMI" : "ami-0fed9d35" },
      "ap-northeast-1" : { "AMI" : "ami-c7e016c7" },
      "sa-east-1"      : { "AMI" : "ami-93fb408e" }
    }
  },

  "Resources": {

    "VPNRole": {
       "Type": "AWS::IAM::Role",
       "Properties": {
          "AssumeRolePolicyDocument": {
             "Statement": [ {
                "Effect": "Allow",
                "Principal": {
                   "Service": [ "ec2.amazonaws.com" ]
                },
                "Action": [ "sts:AssumeRole" ]
             } ]
          },
          "Path": "/",
          "Policies": [ {
             "PolicyName": "VPN_Takeover",
             "PolicyDocument": {
                "Statement": [ {
                   "Effect": "Allow",
                   "Action": [
                      "autoscaling:DescribeAutoScalingGroups",
                      "ec2:DescribeInstances",
                      "ec2:DescribeRouteTables",
                      "ec2:CreateRoute",
                      "ec2:ReplaceRoute",
                      "ec2:StartInstances",
                      "ec2:StopInstances",
                      "ec2:TerminateInstances",
                      "ec2:ModifyInstanceAttribute",
                      "logs:CreateLogGroup",
                      "logs:CreateLogStream",
                      "logs:PutLogEvents",
                      "logs:DescribeLogStreams"
                   ],
                   "Resource": "*"
                },
                {
                    "Effect": "Allow",
                    "Action": [
                        "route53:ChangeResourceRecordSets"
                    ],
                    "Resource": { "Fn::Join" : [ "", [ "arn:aws:route53:::hostedzone/", { "Ref": "hostedZoneId" } ]]}
                },
                {
                    "Effect": "Allow",
                    "Action": [
                        "route53:GetChange",
                        "route53:ListHostedZonesByName"
                    ],
                    "Resource": "*"
                }
               ]
             }
          } ]
       }
    },

    "VPNRoleProfile": {
       "Type": "AWS::IAM::InstanceProfile",
       "Properties": {
          "Path": "/",
          "Roles": [{ "Ref": "VPNRole" }]
       }
    },

    "CloudFormationLogs": {
      "Type": "AWS::Logs::LogGroup",
      "Properties": {
        "RetentionInDays": 7
      }
    },

    "vpnSnsTopic" : {
      "Type" : "AWS::SNS::Topic",
      "Condition": "vpnEventSubscriptionEnabled",
      "Properties" : {
        "Subscription" : [],
        "DisplayName" : {
          "Fn::Join": [
            "-",
            [
              {
                "Ref": "product"
              },
              {
                "Ref": "regionIata"
              },
              {
                "Ref": "environment"
              },
              "vpn",
              "topic"
            ]
          ]
        }
      }
    },

    "MachineagentS3Policies" : {
      "Type": "AWS::IAM::Policy",
      "Condition": "appDynamicEnabled",
      "Properties": {
        "PolicyName": "appDMachineAgentReadOnly",
        "PolicyDocument" : {
          "Version": "2012-10-17",
          "Statement": [
            { "Effect": "Allow",
              "Action": [
                "s3:GetObject",
                "s3:HeadObject"
              ],
              "Resource": [
                { "Fn::Join" : [ "", [ "arn:aws:s3:::", { "Ref": "appDS3" } ]]},
                { "Fn::Join" : [ "", [ "arn:aws:s3:::", { "Ref": "appDS3" }, "/appdynamics*" ]]}
              ]
            }
          ]
        },
        "Roles": [ { "Ref" : "VPNRole" } ]
      }
    },

    "LaunchConfigVPN1" : {
       "Type" : "AWS::AutoScaling::LaunchConfiguration",
       "DependsOn" : [ "VPNRoleProfile" ],
       "Metadata" : {
         "AWS::CloudFormation::Init" : {
           "configSets": {
             "default": [
               "configure_cfn",
               "configure_logs",
               "prepare_instance",
               "update_route53",
               "configure_vpn"
             ]
           },
           "configure_logs": {
             "packages": {
               "yum": {
                 "awslogs": []
               }
             },
             "files": {
               "/etc/awslogs/awslogs.conf": {
                "content": { "Fn::Join": [ "", [
                  "[general]\n",
                  "state_file= /var/awslogs/state/agent-state\n",

                  "[/var/log/cfn-init-cmd.log]\n",
                  "file = /var/log/cfn-init-cmd.log\n",
                  "log_group_name = ", { "Ref": "CloudFormationLogs" }, "\n",
                  "log_stream_name = {instance_id}/cfn-init-cmd.log\n",
                  "datetime_format = \n",

                  "[/var/log/cfn-init.log]\n",
                  "file = /var/log/cfn-init.log\n",
                  "log_group_name = ", { "Ref": "CloudFormationLogs" }, "\n",
                  "log_stream_name = {instance_id}/cfn-init.log\n",
                  "datetime_format = \n",

                  "[/var/log/cfn-hup.log]\n",
                  "file = /var/log/cfn-hup.log\n",
                  "log_group_name = ", { "Ref": "CloudFormationLogs" }, "\n",
                  "log_stream_name = {instance_id}/cfn-hup.log\n",
                  "datetime_format = \n",

                  "[/var/log/pluto.log]\n",
                  "file = /var/log/pluto.log\n",
                  "log_group_name = ", { "Ref": "CloudFormationLogs" }, "\n",
                  "log_stream_name = {instance_id}/pluto.log\n",
                  "datetime_format = \n",

                  "[/var/log/vpn_monitor.log]\n",
                  "file = /var/log/vpn_monitor.log\n",
                  "log_group_name = ", { "Ref": "CloudFormationLogs" }, "\n",
                  "log_stream_name = {instance_id}/vpn_monitor.log\n",
                  "datetime_format = \n",

                  "[/var/log/supervisord.log]\n",
                  "file = /var/log/supervisord.log\n",
                  "log_group_name = ", { "Ref": "CloudFormationLogs" }, "\n",
                  "log_stream_name = {instance_id}/supervisord.log\n",
                  "datetime_format = \n"
                ] ] },
                "mode": "000444",
                "owner": "root",
                "group": "root"
               },
               "/etc/awslogs/awscli.conf": {
                "content": { "Fn::Join": [ "", [
                  "[plugins]\n",
                  "cwlogs = cwlogs\n",
                  "[default]\n",
                  "region = ", { "Ref" : "AWS::Region" }, "\n"
                ] ] },
                "mode": "000444",
                "owner": "root",
                "group": "root"
               }
             },
             "commands" : {
               "01_create_state_directory" : {
                 "command" : "mkdir -p /var/awslogs/state"
               }
             },
             "services": {
               "sysvinit": {
                 "awslogs": {
                   "enabled" : "true",
                   "ensureRunning" : "true",
                   "files" : [ "/etc/awslogs/awslogs.conf" ]
                 }
               }
             }
           },
           "configure_cfn": {
             "files": {
               "/etc/cfn/cfn-hup.conf" : {
                 "content" : { "Fn::Join" : ["", [
                   "[main]\n",
                   "stack=", { "Ref" : "AWS::StackName" }, "\n",
                   "region=", { "Ref" : "AWS::Region" }, "\n",
                   "interval=1\n"
                 ]]},
                 "mode"    : "000400",
                 "owner"   : "root",
                 "group"   : "root"
               },
               "/etc/cfn/hooks.d/cfn-auto-reloader.conf" : {
                 "content": { "Fn::Join" : ["", [
                   "[cfn-auto-reloader-hook]\n",
                   "triggers=post.update\n",
                   "path=Resources.LaunchConfigVPN1.Metadata.AWS::CloudFormation::Init\n",
                   "action=/opt/aws/bin/cfn-init",
                   " -s ", { "Ref" : "AWS::StackId" },
                   " --region ", { "Ref" : "AWS::Region" },
                   " -r LaunchConfigVPN1\n",
                   "runas=root\n"
                 ]]}
               }
             },
             "services": {
               "sysvinit": {
                 "cfn-hup": {
                   "enabled": true,
                   "ensureRunning": true,
                   "files": [
                     "/etc/cfn/cfn-hup.conf",
                     "/etc/cfn/hooks.d/cfn-auto-reloader.conf"
                   ]
                 }
               }
             }
           },
           "configure_vpn": {
             "packages": {
               "yum": {
                 "openswan": [],
                 "aws-cli": [],
                 "jq": []
               },
               "python": {
                 "supervisor": []
               }
             },
             "services": {
               "sysvinit": {
                 "ipsec": {
                   "enabled": "true",
                   "ensureRunning" : "true",
                   "files": [
                     "/etc/ipsec.conf",
                     "/etc/ipsec.d/site-to-site.conf",
                     "/etc/ipsec.d/site-to-site.secrets"
                   ],
                   "packages": { "yum": [ "openswan" ] }
                 },
                 "supervisord": {
                   "enabled": "true",
                   "ensureRunning" : "true",
                   "files": [
                     "/etc/supervisord.conf",
                     "/usr/local/bin/vpn_monitor.sh"
                   ],
                   "packages": { "python": [ "supervisor" ] }
                 }
               }
             },
             "files": {
               "/etc/init.d/supervisord": {
                 "content" : { "Fn::Join" : ["", [
                   "!/bin/bash\n",
                   "# supervisord  Start/Stop supervisor daemon\n",
                   "# chkconfig: 2345 90 60\n",
                   "# description: supervisor uinit script\n",
                   "### BEGIN INIT INFO\n",
                   "# Provides: supervisord\n",
                   "# Required-Start: $all\n",
                   "# Required-Stop: $all\n",
                   "# Short-Description: start and stop Supervisor process control system\n",
                   "# Description: Supervisor is a client/server system that allows\n",
                   "#   its users to monitor and control a number of processes on\n",
                   "#   UNIX-like operating systems.\n",
                   "### END INIT INFO\n",
                   "# Source function library\n",
                   ". /etc/rc.d/init.d/functions\n",
                   "# Source system settings\n",
                   "if [ -f /etc/sysconfig/supervisord ]; then\n",
                   "    . /etc/sysconfig/supervisord\n",
                   "fi\n",
                   "# Path to the supervisorctl script, server binary,\n",
                   "# and short-form for messages.\n",
                   "supervisorctl=/usr/local/bin/supervisorctl\n",
                   "supervisord=${SUPERVISORD-/usr/local/bin/supervisord}\n",
                   "prog=supervisord\n",
                   "pidfile=${PIDFILE-/var/run/supervisord.pid}\n",
                   "lockfile=${LOCKFILE-/var/lock/subsys/supervisord}\n",
                   "STOP_TIMEOUT=${STOP_TIMEOUT-60}\n",
                   "OPTIONS=\"${OPTIONS--c /etc/supervisord.conf}\"\n",
                   "RETVAL=0\n",
                   "start() {\n",
                   "    echo -n $\"Starting $prog: \"\n",
                   "    daemon --pidfile=${pidfile} $supervisord $OPTIONS\n",
                   "    RETVAL=$?\n",
                   "    echo\n",
                   "    if [ $RETVAL -eq 0 ]; then\n",
                   "        touch ${lockfile}\n",
                   "        $supervisorctl $OPTIONS status\n",
                   "    fi\n",
                   "    return $RETVAL\n",
                   "}\n",
                   "stop() {\n",
                   "    echo -n $\"Stopping $prog: \"\n",
                   "    killproc -p ${pidfile} -d ${STOP_TIMEOUT} $supervisord\n",
                   "    RETVAL=$?\n",
                   "    echo\n",
                   "    [ $RETVAL -eq 0 ] && rm -rf ${lockfile} ${pidfile}\n",
                   "}\n",
                   "reload() {\n",
                   "    echo -n $\"Reloading $prog: \"\n",
                   "    LSB=1 killproc -p $pidfile $supervisord -HUP\n",
                   "    RETVAL=$?\n",
                   "    echo\n",
                   "    if [ $RETVAL -eq 7 ]; then\n",
                   "        failure $\"$prog reload\"\n",
                   "    else\n",
                   "        $supervisorctl $OPTIONS status\n",
                   "    fi\n",
                   "}\n",
                   "restart() {\n",
                   "    stop\n",
                   "    start\n",
                   "}\n",
                   "case \"$1\" in\n",
                   "    start)\n",
                   "        start\n",
                   "        ;;\n",
                   "    stop)\n",
                   "        stop\n",
                   "        ;;\n",
                   "    status)\n",
                   "        status -p ${pidfile} $supervisord\n",
                   "        RETVAL=$?\n",
                   "        [ $RETVAL -eq 0 ] && $supervisorctl $OPTIONS status\n",
                   "        ;;\n",
                   "    restart)\n",
                   "        restart\n",
                   "        ;;\n",
                   "    force-reload|reload)\n",
                   "        reload\n",
                   "        ;;\n",
                   "    *)\n",
                   "        echo $\"Usage: $prog {start|stop|restart|force-reload|reload}\"\n",
                   "        RETVAL=2\n",
                   "esac\n",
                   "exit $RETVAL\n"
                 ]]},
                 "mode"  : "000700",
                 "owner" : "root",
                 "group" : "root"
               },
               "/etc/supervisord.conf": {
                 "content" : { "Fn::Join" : ["", [
                   "[unix_http_server]\n",
                   "file=/tmp/supervisor.sock\n",

                   "[supervisord]\n",
                   "logfile=/var/log/supervisord.log\n",
                   "pidfile=/var/run/supervisord.pid\n",

                   "[rpcinterface:supervisor]\n",
                   "supervisor.rpcinterface_factory = supervisor.rpcinterface:make_main_rpcinterface\n",

                   "[supervisorctl]\n",
                   "serverurl=unix:///tmp/supervisor.sock\n",

                   "[program:vpn_monitor]\n",
                   "autostart=true\n",
                   "autorestart=true\n",
                   "command=/usr/local/bin/vpn_monitor.sh\n",
                   "redirect_stderr=true\n",
                   "stdout_logfile=/var/log/vpn_monitor.log\n"
                 ]]}
               },
               "/usr/local/bin/vpn_monitor.sh" : {
                 "content" : { "Fn::Join" : ["", [
                   "#!/bin/bash\n",
                   ". /etc/profile.d/aws-apitools-common.sh\n",

                   "REGION=", { "Ref" : "AWS::Region" }, "\n",
                   "LOCAL_ROUTETABLE_ID=", { "Ref" : "PrivateRouteTable1" }, "\n",
                   "VPN_ROUTETABLE_ID=", { "Ref" : "PrivateRouteTable2" }, "\n",
                   "VPN_CIDR=", { "Ref" : "remoteVpcCidr" }, "\n",

                   "PING_TIMEOUT=", { "Ref" : "PingTimeout" }, "\n",
                   "WAIT_BETWEEN_CHECKS=", { "Ref" : "WaitBetweenPings" }, "\n",
                   "WAIT_FOR_INSTANCE_RESTART=", { "Ref" : "WaitForInstanceRestart" }, "\n",

                   "# Find current instance ID\n",
                   "INSTANCE_ID=$(/usr/bin/curl --silent http://169.254.169.254/latest/meta-data/instance-id)\n",

                   "echo \"$(date) -- Starting VPN monitor\"\n",
                   "while [ . ]; do\n",
                   "  # Wait for VPN #2 to boot up and update PrivateRouteTable2\n",
                   "  # CloudFormation should have updated the PrivateRouteTable2 by now (due to yum update), however loop to make sure\n",

                   "  VPN_ID=\n",
                   "  VPN_ID_TIMEOUT=0\n",
                   "  while [ \"${VPN_ID}\" == \"\" ]; do\n",
                   "    VPN_ID=$(aws ec2 describe-route-tables --region \"${REGION}\" --route-table-ids \"${VPN_ROUTETABLE_ID}\" | jq -r \".RouteTables[] | select(.RouteTableId==\\\"${VPN_ROUTETABLE_ID}\\\") | .Routes[] | select(.DestinationCidrBlock==\\\"${VPN_CIDR}\\\") | .InstanceId\")\n",
                   "    if [ \"${VPN_ID}\" == \"\" ]; then\n",
                   "      [ ${VPN_ID_TIMEOUT} -gt 6 ] && { echo \"$(date) -- Failed to get VPN instance ID\" ; exit 1; }\n",
                   "      let VPN_ID_TIMEOUT=VPN_ID_TIMEOUT+1\n",
                   "      sleep 30\n",
                   "    fi\n",
                   "  done\n",

                   "  VPN_IP=\n",
                   "  VPN_IP_TIMEOUT=0\n",
                   "  while [ \"${VPN_IP}\" == \"\" ]; do\n",
                   "    VPN_IP=$(aws ec2 describe-instances --instance-ids \"${VPN_ID}\" --region \"${REGION}\" | jq -r \".Reservations[].Instances[] | select(.InstanceId==\\\"${VPN_ID}\\\") | .PrivateIpAddress\")\n",
                   "    if [ \"${VPN_IP}\" == \"\" ]; then\n",
                   "      [ ${VPN_IP_TIMEOUT} -gt 6 ] && { echo \"$(date) -- Failed to get VPN instance IP\" ; exit 1; }\n",
                   "      let VPN_IP_TIMEOUT=VPN_IP_TIMEOUT+1\n",
                   "      sleep 30\n",
                   "    fi\n",
                   "  done\n",

                   "  # Get AutoScalingGroup name\n",
                   "  ASG_NAME=$(aws autoscaling describe-auto-scaling-groups --region \"${REGION}\" | jq -r \".AutoScalingGroups[] | select(.Instances[].InstanceId==\\\"${VPN_ID}\\\") | .AutoScalingGroupName\")\n",

                   "  # Check instance Health by checking 22 port\n",
                   "  nc -z -w${PING_TIMEOUT} ${VPN_IP} 22 >/dev/null 2>&1\n",
                   "  NCRESULT=$?\n",
                   "  if [ \"${NCRESULT}\" != \"0\" ]; then\n",
                   "    ROUTE_HEALTHY=0\n",
                   "    if [ \"$ROUTE_HEALTHY\" == \"0\" ]; then\n",
                   "      echo \"$(date) -- Other VPN heartbeat failed, taking over $VPN_RT_ID default route\"\n",
                   "      aws ec2 replace-route --region \"${REGION}\" --route-table-id \"${VPN_ROUTETABLE_ID}\" --destination-cidr-block \"${VPN_CIDR}\" --instance-id \"${INSTANCE_ID}\"\n",
                   "      ROUTE_HEALTHY=1\n",
                   "    fi\n",
                   "    # Terminate unhealthy instance\n",
                   "    echo \"$(date) -- Terminating unhealthy instance: ${VPN_ID}\"\n",
                   "    aws ec2 terminate-instances --instance-ids \"${VPN_ID}\" --region \"${REGION}\"\n",
                   "    echo \"$(date) -- Waiting for new instance to come up in ASG: ${ASG_NAME}\"\n",
                   "    HEALTH_INSTANCE_COUNT=0\n",
                   "    while [ \"${HEALTH_INSTANCE_COUNT}\" == \"0\" ]; do\n",
                   "      HEALTH_INSTANCE_COUNT=$(aws autoscaling describe-auto-scaling-groups --region \"${REGION}\" | jq -r \".AutoScalingGroups[] | select(.AutoScalingGroupName==\\\"${ASG_NAME}\\\") | .Instances | select(.[].HealthStatus==\\\"Healthy\\\") | length\")\n",
                   "      sleep ${WAIT_FOR_INSTANCE_RESTART}\n",
                   "    done\n",
                   "    echo \"$(date) -- Finished. Newly created instance should be up and running\"\n",
                   "  else\n",
                   "    sleep ${WAIT_BETWEEN_CHECKS}\n",
                   "  fi\n",
                   "done\n"
                 ]]},
                 "mode"  : "000700",
                 "owner" : "root",
                 "group" : "root"
               },
               "/etc/ipsec.d/site-to-site.conf" : {
                 "content": { "Fn::Join" : ["", [
                   "conn site-to-site\n",
                   "    left=%defaultroute\n",
                   "    leftid=@",
                         { "Ref" : "product" }, "-",
                         { "Ref" : "regionIata" }, "-",
                         { "Ref" : "environment" }, "-left.", { "Ref" : "dnsNameExt" } ,"\n",
                   "    leftnexthop=%defaultroute\n",
                   "    leftsubnet=", { "Ref": "VpcCidr" },"\n",
                   "    right=",
                         { "Ref" : "product" }, "-",
                         { "Ref" : "remoteRegionIata" }, "-",
                         { "Ref" : "environment" }, "-left.", { "Ref" : "dnsNameExt" } ,"\n",
                   "    rightid=@",
                         { "Ref" : "product" }, "-",
                         { "Ref" : "remoteRegionIata" }, "-",
                         { "Ref" : "environment" }, "-left.", { "Ref" : "dnsNameExt" } ,"\n",
                   "    rightsubnet=", { "Ref": "remoteVpcCidr" },"\n",
                   "    authby=secret\n",
                   "    auto=start\n",
                   "    dpdaction=clear\n",
                   "    dpddelay=10\n",
                   "    dpdtimeout=90\n",
                   "    forceencaps=yes\n",
                   "    pfs=no\n",
                   "    type=tunnel\n"
                 ]]}
               },
               "/etc/sysctl.d/nat.conf" : {
                 "content": { "Fn::Join" : ["", [
                   "net.ipv4.ip_forward = 1\n",
                   "net.ipv4.conf.default.accept_redirects = 0\n",
                   "net.ipv4.conf.default.send_redirects = 0\n",
                   "net.ipv4.conf.eth0.send_redirects = 0\n",
                   "net.ipv4.conf.eth0.accept_redirects = 0\n"
                 ]]}
               },
               "/etc/ipsec.d/site-to-site.secrets" : {
                 "content": { "Fn::Join" : ["", [
                   { "Ref" : "product" }, "-",
                   { "Ref" : "regionIata" }, "-",
                   { "Ref" : "environment" }, "-left.", { "Ref" : "dnsNameExt" },
                   " ",
                   { "Ref" : "product" }, "-",
                   { "Ref" : "remoteRegionIata" }, "-",
                   { "Ref" : "environment" }, "-left.", { "Ref" : "dnsNameExt" },
                   "\n",
                   " @",
                   { "Ref" : "product" }, "-",
                   { "Ref" : "regionIata" }, "-",
                   { "Ref" : "environment" }, "-left.", { "Ref" : "dnsNameExt" },
                   " @",
                   { "Ref" : "product" }, "-",
                   { "Ref" : "remoteRegionIata" }, "-",
                   { "Ref" : "environment" }, "-left.", { "Ref" : "dnsNameExt" },
                   ": PSK \"The occupation of the Malheur National Wildlife Refuge was haphazard and chaotic\"\n"
                 ]]},
                 "mode"  : "000400",
                 "owner" : "root",
                 "group" : "root"
               },
               "/etc/ipsec.conf": {
                 "content": { "Fn::Join" : ["", [
                   "version 2.0\n",
                   "config setup\n",
                   "    protostack=netkey\n",
                   "    nat_traversal=yes\n",
                   "    virtual_private=\n",
                   "    oe=off\n",
                   "    plutostderrlog=/var/log/pluto.log\n",
                   "include /etc/ipsec.d/*.conf\n"
                 ]]}
               },
               "/usr/local/bin/vpn_prepare.sh" : {
                 "content": { "Fn::Join" : ["", [
                   "#!/bin/bash -x\n",
                   "yum update -y aws*\n",
                   ". /etc/profile.d/aws-apitools-common.sh\n",

                   "# Configure iptables\n",
                   "/sbin/iptables -t nat -C POSTROUTING -o eth0 -s 0.0.0.0/0 -j MASQUERADE >/dev/null 2>&1\n",
                   "[ $? -ne 0 ] && /sbin/iptables -t nat -A POSTROUTING -o eth0 -s 0.0.0.0/0 -j MASQUERADE\n",
                   "/sbin/iptables-save > /etc/sysconfig/iptables\n",

                   "# Configure ip forwarding and redirects\n",
                   "echo 1 > /proc/sys/net/ipv4/ip_forward\n",
                   "echo 0 > /proc/sys/net/ipv4/conf/eth0/send_redirects\n",
                   "echo 0 > /proc/sys/net/ipv4/conf/eth0/accept_redirects\n",
                   "echo 0 > /proc/sys/net/ipv4/conf/default/accept_redirects\n",
                   "echo 0 > /proc/sys/net/ipv4/conf/default/send_redirects\n"
                 ]]},
                 "mode"  : "000700",
                 "owner" : "root",
                 "group" : "root"
               }
             },
             "commands" : {
               "01_vpn_prepare" : {
                 "command" : "/usr/local/bin/vpn_prepare.sh",
                 "test" : "test -e /usr/local/bin/vpn_prepare.sh"
               }
             }
           },
           "prepare_instance" : {
             "packages": {
               "yum": {
                 "aws-cli": [],
                 "python27-pip": []
               }
             },
             "files" : {
               "/usr/local/bin/disable_source_dest_check.sh": {
                 "content": { "Fn::Join" : ["", [
                   "#!/bin/bash -x\n",
                   ". /etc/profile.d/aws-apitools-common.sh\n",
                   "aws ec2 modify-instance-attribute",
                   " --region ", { "Ref" : "AWS::Region" },
                   " --instance-id",
                   " $(/usr/bin/curl --silent http://169.254.169.254/latest/meta-data/instance-id)",
                   " --no-source-dest-check\n"
                 ]]},
                 "mode"  : "000700",
                 "owner" : "root",
                 "group" : "root"
               },
               "/usr/local/bin/configure_vpn_route.sh": {
                 "content": { "Fn::Join" : ["", [
                   "#!/bin/bash -x\n",
                   ". /etc/profile.d/aws-apitools-common.sh\n",

                   "EC2_URL=\"https://ec2.", { "Ref" : "AWS::Region" }, ".amazonaws.com\"\n",
                   "LOCAL_ROUTETABLE_ID=", { "Ref" : "PrivateRouteTable1" }, "\n",
                   "REMOTE_CIDR=", { "Ref": "remoteVpcCidr" }, "\n",
                   "INSTANCE_ID=$(/usr/bin/curl --silent http://169.254.169.254/latest/meta-data/instance-id)\n",

                   "echo \"Adding this instance to ${LOCAL_ROUTETABLE_ID} for ${REMOTE_CIDR} route on instance start\"\n",
                   "/opt/aws/bin/ec2-replace-route ${LOCAL_ROUTETABLE_ID} -r ${REMOTE_CIDR} -i ${INSTANCE_ID} -U ${EC2_URL}\n",
                   "EXITCODE=$?\n",

                   "if [ \"$EXITCODE\" != \"0\" ]; then\n",
                   "  echo \"Route doesn't exist. Creating new one...\"\n",
                   "  /opt/aws/bin/ec2-create-route ${LOCAL_ROUTETABLE_ID} -r ${REMOTE_CIDR} -i ${INSTANCE_ID} -U ${EC2_URL}\n",
                   "  EXITCODE=$?\n",
                   "fi\n",

                   "exit $EXITCODE\n"
                 ]]},
                 "mode"  : "000700",
                 "owner" : "root",
                 "group" : "root"
               },
               "/tmp/authorized_keys.new" : {
                 "content" : { "Fn::Join" : [ "\n" , { "Ref" : "sshUserKeys" } ] }
               },
               "/opt/appdynamics/machineagent/machineagent.sh" : {
                 "content": { "Fn::Join" : ["", [
                   "#!/bin/sh\n",
                   "nohup java -Xmx100m -XX:PermSize=20m",
                   " -Dappdynamics.agent.applicationName=",{ "Ref" : "appDAppName" },
                   " -Dappdynamics.agent.tierName=",{ "Ref" : "appDTierName" },
                   " -Dappdynamics.agent.nodeName=$(hostname)",
                   " -Dappdynamics.agent.accountName=",{ "Ref" : "appDAcctName" },
                   " -Dappdynamics.controller.hostName=",{ "Ref" : "appDContHost" },
                   " -Dappdynamics.controller.port=",{ "Ref" : "appDContPort" },
                   " -Dappdynamics.controller.ssl.enabled=",{ "Ref" : "appDContSslEnabled" },
                   " -Dappdynamics.agent.accountAccessKey=",{ "Ref" : "appDAccessKey" },
                   " -jar /opt/appdynamics/machineagent/machineagent-",{ "Ref" : "appDVersionNo" },"/machineagent.jar >/dev/null 2>&1 &\n"
                 ]]},
                 "mode"  : "000700",
                 "owner" : "root",
                 "group" : "root"
               },
               "/usr/local/bin/update_authorized_keys.sh" : {
                 "content" : { "Fn::Join" : ["", [
                   "#!/bin/bash -x\n",
                   "# install authorized_keys\n",
                   "[ ! -e /home/ec2-user/.ssh/authorized_keys.orig ] &&",
                   " cp /home/ec2-user/.ssh/authorized_keys /home/ec2-user/.ssh/authorized_keys.orig\n",
                   "[ -e /home/ec2-user/.ssh/authorized_keys.orig -a -e /tmp/authorized_keys.new ] &&",
                   " paste -d'\\n' /tmp/authorized_keys.new /home/ec2-user/.ssh/authorized_keys.orig | sed '/^$/d' > /home/ec2-user/.ssh/authorized_keys\n",
                   "if [ -e /home/ec2-user/.ssh/authorized_keys ]; then\n",
                   "  chmod 600 /home/ec2-user/.ssh/authorized_keys\n",
                   "  chown ec2-user: /home/ec2-user/.ssh/authorized_keys\n",
                   "fi\n",
                   "[ -e /tmp/authorized_keys.new ] && rm -f /tmp/authorized_keys.new\n"
                 ]]},
                 "mode"  : "000700",
                 "owner" : "root",
                 "group" : "root"
               },
               "/usr/local/bin/install_machineagent.sh" : {
                 "content" : { "Fn::Join" : ["", [
                   "#!/bin/bash -x\n",
                   "pip install awscli\n",
                   "# INITIALIZE\n",
                   "runningVersion=$(pgrep -l -f machineagent.jar | sed 's#.*machineagent-\\([0-9.]*\\)\\/.*#\\1#')\n",
                   "nextVersion=",{"Ref":"appDVersionNo"},"\n",
                   "execFile=/opt/appdynamics/machineagent/machineagent.sh\n",
                   "execFileMd5=/opt/appdynamics/machineagent/machineagent.sh.md5\n",
                   "mkdir -p /opt/appdynamics/machineagent\n",
                   "restart_machineagent() {\n",
                   "  [ ! -z \"${runningVersion}\" ] && pkill -9 -f machineagent.jar\n",
                   "  md5sum ${execFile} > ${execFileMd5}\n",
                   "  ${execFile}\n",
                   "}\n",
                   "# (re)INSTALL MACHINEAGENT AND RESTART\n",
                   "if [ \"${runningVersion}\" != \"${nextVersion}\" ]; then\n",
                   "  [ ! -z \"${runningVersion}\" ] && pkill -9 -f machineagent.jar\n",
                   "  rm -rf /opt/appdynamics/machineagent/machineagent-*\n",
                   "  mkdir -p /opt/appdynamics/machineagent/machineagent-${nextVersion}\n",
                   "  /usr/bin/aws s3 cp '",{ "Ref" : "appDS3Url" },"' - | tar -xz -C /opt/appdynamics/machineagent/machineagent-${nextVersion}\n",
                   "  md5sum ${execFile} > ${execFileMd5}\n",
                   "  ${execFile}\n",
                   "fi\n",
                   "# RESTART IF CONFIGURATION HAS CHANGED\n",
                   "if [ -e ${execFileMd5} ]; then\n",
                   "  md5sum --status -c ${execFileMd5}\n",
                   "  if [ $? -ne 0 ]; then\n",
                   "    restart_machineagent\n",
                   "  else\n",
                   "    exit 0\n",
                   "  fi\n",
                   "else\n",
                   "  restart_machineagent\n",
                   "fi\n"
                 ]]},
                 "mode"  : "000700",
                 "owner" : "root",
                 "group" : "root"
               }
             },
             "commands" : {
               "01_update_authorized_keys": {
                 "command" : "/usr/local/bin/update_authorized_keys.sh",
                 "test" : "test -e /usr/local/bin/update_authorized_keys.sh"
               },
               "02_disable_source_dest_check": {
                 "command": "/usr/local/bin/disable_source_dest_check.sh",
                 "test": "test -e /usr/local/bin/disable_source_dest_check.sh"
               },
               "03_configure_vpn_route": {
                 "command": "/usr/local/bin/configure_vpn_route.sh",
                 "test": "test -e /usr/local/bin/configure_vpn_route.sh"
               },
               "04_install_machineagent": {
                 "command" : "/usr/local/bin/install_machineagent.sh",
                 "test" : { "Fn::Join" : ["", ["x=", { "Ref" : "appDynamicEnabled"},"; if [ $x == 'y' ]; then exit 0; else exit 1; fi"]]}
               }
             }
           },
           "update_route53": {
             "packages": {
               "yum": {
                 "ec2-net-utils": [],
                 "jq": []
               }
             },
             "files": {
               "/usr/local/bin/update_route53_record.sh" : {
                 "content" : { "Fn::Join" : ["", [
                   "#!/bin/bash -ex\n",

                   "REGION=", { "Ref": "AWS::Region" },"\n",
                   "HOSTED_ZONE_ID=", { "Ref": "hostedZoneId" } ,"\n",
                   "PUBLIC_IP=$(curl -s http://169.254.169.254/latest/meta-data/public-ipv4)\n",

                   "cat <<EOF > /tmp/update-record.json\n",
                   "{ \"Changes\": [{\n",
                   "    \"Action\": \"UPSERT\",\n",
                   "    \"ResourceRecordSet\": {\n",
                   "      \"Name\": \"", { "Ref" : "product" }, "-", { "Ref" : "regionIata" }, "-", { "Ref" : "environment" }, "-left.", { "Ref" : "dnsNameExt" },"\",\n",
                   "      \"Type\": \"A\",\n",
                   "      \"TTL\": 5,\n",
                   "      \"ResourceRecords\": [{ \"Value\": \"${PUBLIC_IP}\" }]\n",
                   "    }\n",
                   "}]}\n",
                   "EOF\n",

                   "aws route53 change-resource-record-sets",
                   " --region ${REGION}",
                   " --hosted-zone-id ${HOSTED_ZONE_ID}",
                   " --change-batch file:///tmp/update-record.json\n"
                 ]]},
                 "mode"  : "000700",
                 "owner" : "root",
                 "group" : "root"
               }
             },
             "commands": {
               "01_update_route53" : {
                 "command" : "/usr/local/bin/update_route53_record.sh",
                 "test" : "test -e /usr/local/bin/update_route53_record.sh"
               }
             }
           }
         }
       },
       "Properties" : {
          "AssociatePublicIpAddress": true,
          "IamInstanceProfile": { "Ref": "VPNRoleProfile" },
          "ImageId" : { "Fn::FindInMap" : [ "AWSVPNAMI", { "Ref" : "AWS::Region" }, "AMI" ]},
          "InstanceType": { "Ref" : "VPNNodeInstanceType" },
          "KeyName" : { "Ref" : "vpcSshKeyName" },
          "SecurityGroups": [ { "Ref": "sgVPN" } ],
          "UserData": { "Fn::Base64": {"Fn::Join": [ "", [
            "#!/bin/bash -x\n",
            "yum install -y aws-cfn-bootstrap\n",

            "# Helper function\n",
            "function error_exit\n",
            "{\n",
            "  /opt/aws/bin/cfn-signal -e 1 -r \"$1\" '", { "Ref" : "WaitHandle" }, "'\n",
            "  exit 1\n",
            "}\n",

            "# Run commands\n",
            "/opt/aws/bin/cfn-init",
            "  -s ", { "Ref" : "AWS::StackId" },
            "  -r LaunchConfigVPN1 ",
            "  --configsets default ",
            "  --region ", { "Ref" : "AWS::Region" }, "|| error_exit \"failed to run cfn-init (first run)\"\n",

            "# Start up the cfn-hup daemon to listen for changes\n",
            "/opt/aws/bin/cfn-hup || error_exit 'Failed to start cfn-hup'\n",

            "# All is well so signal success\n",
            "/opt/aws/bin/cfn-signal",
            "  -e $? '", { "Ref" : "WaitHandle" }, "'\n"
          ]]}}
       }
    },

    "vpnASG1": {
      "Type" : "AWS::AutoScaling::AutoScalingGroup",
      "DependsOn" : ["LaunchConfigVPN1"],
      "Properties" : {
        "VPCZoneIdentifier" : [ { "Ref" : "PublicSubnet1" } ],
        "LaunchConfigurationName" : { "Ref" : "LaunchConfigVPN1" },
        "MinSize" : "1",
        "MaxSize" : "1",
        "Tags" : [
          {
            "Key" : "Name",
            "Value" : { "Fn::Join" : [ "-" , [ { "Ref" : "product" }, { "Ref" : "regionIata" }, { "Ref" : "environment" }, "left" ]]},
            "PropagateAtLaunch" : "true"
          },
          {
            "Key" : "costCenter",
            "Value" : { "Ref" : "costCenter" },
            "PropagateAtLaunch" : "true"
          },
          {
            "Key" : "class",
            "Value" : "vpn",
            "PropagateAtLaunch" : "true"
          },
          {
            "Key" : "env",
            "Value" : { "Ref" : "environment" },
            "PropagateAtLaunch" : "true"
          },
          {
            "Key" : "Application",
            "Value" : { "Ref" : "AWS::StackId" },
            "PropagateAtLaunch" : "true"
          },
          {
            "Key" : "techContact",
            "Value" : { "Ref" : "techContact" },
            "PropagateAtLaunch" : "true"
          }
        ],
        "NotificationConfigurations" : [{
          "Fn::If": [ "vpnEventSubscriptionEnabled",
            {
              "TopicARN" : { "Ref" : "vpnSnsTopic" },
              "NotificationTypes" : ["autoscaling:EC2_INSTANCE_LAUNCH","autoscaling:EC2_INSTANCE_LAUNCH_ERROR","autoscaling:EC2_INSTANCE_TERMINATE","autoscaling:EC2_INSTANCE_TERMINATE_ERROR"]
            },
            { "Ref": "AWS::NoValue" }
          ]
        }]
      }
    },

    "LaunchConfigVPN2" : {
       "Type" : "AWS::AutoScaling::LaunchConfiguration",
       "DependsOn" : [ "VPNRoleProfile" ],
       "Metadata" : {
         "AWS::CloudFormation::Init" : {
           "configSets": {
             "default": [
               "configure_cfn",
               "configure_logs",
               "prepare_instance",
               "update_route53",
               "configure_vpn"
             ]
           },
           "configure_logs": {
             "packages": {
               "yum": {
                 "awslogs": []
               }
             },
             "files": {
               "/etc/awslogs/awslogs.conf": {
                "content": { "Fn::Join": [ "", [
                  "[general]\n",
                  "state_file= /var/awslogs/state/agent-state\n",

                  "[/var/log/cfn-init-cmd.log]\n",
                  "file = /var/log/cfn-init-cmd.log\n",
                  "log_group_name = ", { "Ref": "CloudFormationLogs" }, "\n",
                  "log_stream_name = {instance_id}/cfn-init-cmd.log\n",
                  "datetime_format = \n",

                  "[/var/log/cfn-init.log]\n",
                  "file = /var/log/cfn-init.log\n",
                  "log_group_name = ", { "Ref": "CloudFormationLogs" }, "\n",
                  "log_stream_name = {instance_id}/cfn-init.log\n",
                  "datetime_format = \n",

                  "[/var/log/cfn-hup.log]\n",
                  "file = /var/log/cfn-hup.log\n",
                  "log_group_name = ", { "Ref": "CloudFormationLogs" }, "\n",
                  "log_stream_name = {instance_id}/cfn-hup.log\n",
                  "datetime_format = \n",

                  "[/var/log/pluto.log]\n",
                  "file = /var/log/pluto.log\n",
                  "log_group_name = ", { "Ref": "CloudFormationLogs" }, "\n",
                  "log_stream_name = {instance_id}/pluto.log\n",
                  "datetime_format = \n",

                  "[/var/log/vpn_monitor.log]\n",
                  "file = /var/log/vpn_monitor.log\n",
                  "log_group_name = ", { "Ref": "CloudFormationLogs" }, "\n",
                  "log_stream_name = {instance_id}/vpn_monitor.log\n",
                  "datetime_format = \n",

                  "[/var/log/supervisord.log]\n",
                  "file = /var/log/supervisord.log\n",
                  "log_group_name = ", { "Ref": "CloudFormationLogs" }, "\n",
                  "log_stream_name = {instance_id}/supervisord.log\n",
                  "datetime_format = \n"
                ] ] },
                "mode": "000444",
                "owner": "root",
                "group": "root"
               },
               "/etc/awslogs/awscli.conf": {
                "content": { "Fn::Join": [ "", [
                  "[plugins]\n",
                  "cwlogs = cwlogs\n",
                  "[default]\n",
                  "region = ", { "Ref" : "AWS::Region" }, "\n"
                ] ] },
                "mode": "000444",
                "owner": "root",
                "group": "root"
               }
             },
             "commands" : {
               "01_create_state_directory" : {
                 "command" : "mkdir -p /var/awslogs/state"
               }
             },
             "services": {
               "sysvinit": {
                 "awslogs": {
                   "enabled" : "true",
                   "ensureRunning" : "true",
                   "files" : [ "/etc/awslogs/awslogs.conf" ]
                 }
               }
             }
           },
           "configure_cfn": {
             "files": {
               "/etc/cfn/cfn-hup.conf" : {
                 "content" : { "Fn::Join" : ["", [
                   "[main]\n",
                   "stack=", { "Ref" : "AWS::StackName" }, "\n",
                   "region=", { "Ref" : "AWS::Region" }, "\n",
                   "interval=1\n"
                 ]]},
                 "mode"    : "000400",
                 "owner"   : "root",
                 "group"   : "root"
               },
               "/etc/cfn/hooks.d/cfn-auto-reloader.conf" : {
                 "content": { "Fn::Join" : ["", [
                   "[cfn-auto-reloader-hook]\n",
                   "triggers=post.update\n",
                   "path=Resources.LaunchConfigVPN2.Metadata.AWS::CloudFormation::Init\n",
                   "action=/opt/aws/bin/cfn-init",
                   " -s ", { "Ref" : "AWS::StackId" },
                   " --region ", { "Ref" : "AWS::Region" },
                   " -r LaunchConfigVPN2\n",
                   "runas=root\n"
                 ]]}
               }
             },
             "services": {
               "sysvinit": {
                 "cfn-hup": {
                   "enabled": true,
                   "ensureRunning": true,
                   "files": [
                     "/etc/cfn/cfn-hup.conf",
                     "/etc/cfn/hooks.d/cfn-auto-reloader.conf"
                   ]
                 }
               }
             }
           },
           "configure_vpn": {
             "packages": {
               "yum": {
                 "openswan": [],
                 "aws-cli": [],
                 "jq": []
               },
               "python": {
                 "supervisor": []
               }
             },
             "services": {
               "sysvinit": {
                 "ipsec": {
                   "enabled": "true",
                   "ensureRunning" : "true",
                   "files": [
                     "/etc/ipsec.conf",
                     "/etc/ipsec.d/site-to-site.conf",
                     "/etc/ipsec.d/site-to-site.secrets"
                   ],
                   "packages": { "yum": [ "openswan" ] }
                 },
                 "supervisord": {
                   "enabled": "true",
                   "ensureRunning" : "true",
                   "files": [
                     "/etc/supervisord.conf",
                     "/usr/local/bin/vpn_monitor.sh"
                   ],
                   "packages": { "python": [ "supervisor" ] }
                 }
               }
             },
             "files": {
               "/etc/init.d/supervisord": {
                 "content" : { "Fn::Join" : ["", [
                   "!/bin/bash\n",
                   "# supervisord  Start/Stop supervisor daemon\n",
                   "# chkconfig: 2345 90 60\n",
                   "# description: supervisor uinit script\n",
                   "### BEGIN INIT INFO\n",
                   "# Provides: supervisord\n",
                   "# Required-Start: $all\n",
                   "# Required-Stop: $all\n",
                   "# Short-Description: start and stop Supervisor process control system\n",
                   "# Description: Supervisor is a client/server system that allows\n",
                   "#   its users to monitor and control a number of processes on\n",
                   "#   UNIX-like operating systems.\n",
                   "### END INIT INFO\n",
                   "# Source function library\n",
                   ". /etc/rc.d/init.d/functions\n",
                   "# Source system settings\n",
                   "if [ -f /etc/sysconfig/supervisord ]; then\n",
                   "    . /etc/sysconfig/supervisord\n",
                   "fi\n",
                   "# Path to the supervisorctl script, server binary,\n",
                   "# and short-form for messages.\n",
                   "supervisorctl=/usr/local/bin/supervisorctl\n",
                   "supervisord=${SUPERVISORD-/usr/local/bin/supervisord}\n",
                   "prog=supervisord\n",
                   "pidfile=${PIDFILE-/var/run/supervisord.pid}\n",
                   "lockfile=${LOCKFILE-/var/lock/subsys/supervisord}\n",
                   "STOP_TIMEOUT=${STOP_TIMEOUT-60}\n",
                   "OPTIONS=\"${OPTIONS--c /etc/supervisord.conf}\"\n",
                   "RETVAL=0\n",
                   "start() {\n",
                   "    echo -n $\"Starting $prog: \"\n",
                   "    daemon --pidfile=${pidfile} $supervisord $OPTIONS\n",
                   "    RETVAL=$?\n",
                   "    echo\n",
                   "    if [ $RETVAL -eq 0 ]; then\n",
                   "        touch ${lockfile}\n",
                   "        $supervisorctl $OPTIONS status\n",
                   "    fi\n",
                   "    return $RETVAL\n",
                   "}\n",
                   "stop() {\n",
                   "    echo -n $\"Stopping $prog: \"\n",
                   "    killproc -p ${pidfile} -d ${STOP_TIMEOUT} $supervisord\n",
                   "    RETVAL=$?\n",
                   "    echo\n",
                   "    [ $RETVAL -eq 0 ] && rm -rf ${lockfile} ${pidfile}\n",
                   "}\n",
                   "reload() {\n",
                   "    echo -n $\"Reloading $prog: \"\n",
                   "    LSB=1 killproc -p $pidfile $supervisord -HUP\n",
                   "    RETVAL=$?\n",
                   "    echo\n",
                   "    if [ $RETVAL -eq 7 ]; then\n",
                   "        failure $\"$prog reload\"\n",
                   "    else\n",
                   "        $supervisorctl $OPTIONS status\n",
                   "    fi\n",
                   "}\n",
                   "restart() {\n",
                   "    stop\n",
                   "    start\n",
                   "}\n",
                   "case \"$1\" in\n",
                   "    start)\n",
                   "        start\n",
                   "        ;;\n",
                   "    stop)\n",
                   "        stop\n",
                   "        ;;\n",
                   "    status)\n",
                   "        status -p ${pidfile} $supervisord\n",
                   "        RETVAL=$?\n",
                   "        [ $RETVAL -eq 0 ] && $supervisorctl $OPTIONS status\n",
                   "        ;;\n",
                   "    restart)\n",
                   "        restart\n",
                   "        ;;\n",
                   "    force-reload|reload)\n",
                   "        reload\n",
                   "        ;;\n",
                   "    *)\n",
                   "        echo $\"Usage: $prog {start|stop|restart|force-reload|reload}\"\n",
                   "        RETVAL=2\n",
                   "esac\n",
                   "exit $RETVAL\n"
                 ]]},
                 "mode"  : "000700",
                 "owner" : "root",
                 "group" : "root"
               },
               "/etc/supervisord.conf": {
                 "content" : { "Fn::Join" : ["", [
                   "[unix_http_server]\n",
                   "file=/tmp/supervisor.sock\n",

                   "[supervisord]\n",
                   "logfile=/var/log/supervisord.log\n",
                   "pidfile=/var/run/supervisord.pid\n",

                   "[rpcinterface:supervisor]\n",
                   "supervisor.rpcinterface_factory = supervisor.rpcinterface:make_main_rpcinterface\n",

                   "[supervisorctl]\n",
                   "serverurl=unix:///tmp/supervisor.sock\n",

                   "[program:vpn_monitor]\n",
                   "autostart=true\n",
                   "autorestart=true\n",
                   "command=/usr/local/bin/vpn_monitor.sh\n",
                   "redirect_stderr=true\n",
                   "stdout_logfile=/var/log/vpn_monitor.log\n"
                 ]]},
                 "mode"  : "000700",
                 "owner" : "root",
                 "group" : "root"
               },
               "/usr/local/bin/vpn_monitor.sh" : {
                 "content" : { "Fn::Join" : ["", [
                   "#!/bin/bash\n",
                   ". /etc/profile.d/aws-apitools-common.sh\n",

                   "REGION=", { "Ref" : "AWS::Region" }, "\n",
                   "LOCAL_ROUTETABLE_ID=", { "Ref" : "PrivateRouteTable2" }, "\n",
                   "VPN_ROUTETABLE_ID=", { "Ref" : "PrivateRouteTable1" }, "\n",
                   "VPN_CIDR=", { "Ref" : "remoteVpcCidr" }, "\n",

                   "PING_TIMEOUT=", { "Ref" : "PingTimeout" }, "\n",
                   "WAIT_BETWEEN_CHECKS=", { "Ref" : "WaitBetweenPings" }, "\n",
                   "WAIT_FOR_INSTANCE_RESTART=", { "Ref" : "WaitForInstanceRestart" }, "\n",

                   "# Find current instance ID\n",
                   "INSTANCE_ID=$(/usr/bin/curl --silent http://169.254.169.254/latest/meta-data/instance-id)\n",

                   "echo \"$(date) -- Starting VPN monitor\"\n",
                   "while [ . ]; do\n",
                   "  # Wait for VPN #2 to boot up and update PrivateRouteTable2\n",
                   "  # CloudFormation should have updated the PrivateRouteTable2 by now (due to yum update), however loop to make sure\n",

                   "  VPN_ID=\n",
                   "  VPN_ID_TIMEOUT=0\n",
                   "  while [ \"${VPN_ID}\" == \"\" ]; do\n",
                   "    VPN_ID=$(aws ec2 describe-route-tables --region \"${REGION}\" --route-table-ids \"${VPN_ROUTETABLE_ID}\" | jq -r \".RouteTables[] | select(.RouteTableId==\\\"${VPN_ROUTETABLE_ID}\\\") | .Routes[] | select(.DestinationCidrBlock==\\\"${VPN_CIDR}\\\") | .InstanceId\")\n",
                   "    if [ \"${VPN_ID}\" == \"\" ]; then\n",
                   "      [ ${VPN_ID_TIMEOUT} -gt 6 ] && { echo \"$(date) -- Failed to get VPN instance ID\" ; exit 1; }\n",
                   "      let VPN_ID_TIMEOUT=VPN_ID_TIMEOUT+1\n",
                   "      sleep 30\n",
                   "    fi\n",
                   "  done\n",

                   "  VPN_IP=\n",
                   "  VPN_IP_TIMEOUT=0\n",
                   "  while [ \"${VPN_IP}\" == \"\" ]; do\n",
                   "    VPN_IP=$(aws ec2 describe-instances --instance-ids \"${VPN_ID}\" --region \"${REGION}\" | jq -r \".Reservations[].Instances[] | select(.InstanceId==\\\"${VPN_ID}\\\") | .PrivateIpAddress\")\n",
                   "    if [ \"${VPN_IP}\" == \"\" ]; then\n",
                   "      [ ${VPN_IP_TIMEOUT} -gt 6 ] && { echo \"$(date) -- Failed to get VPN instance IP\" ; exit 1; }\n",
                   "      let VPN_IP_TIMEOUT=VPN_IP_TIMEOUT+1\n",
                   "      sleep 30\n",
                   "    fi\n",
                   "  done\n",

                   "  # Get AutoScalingGroup name\n",
                   "  ASG_NAME=$(aws autoscaling describe-auto-scaling-groups --region \"${REGION}\" | jq -r \".AutoScalingGroups[] | select(.Instances[].InstanceId==\\\"${VPN_ID}\\\") | .AutoScalingGroupName\")\n",

                   "  # Check instance Health by checking 22 port\n",
                   "  nc -z -w${PING_TIMEOUT} ${VPN_IP} 22 >/dev/null 2>&1\n",
                   "  NCRESULT=$?\n",
                   "  if [ \"${NCRESULT}\" != \"0\" ]; then\n",
                   "    ROUTE_HEALTHY=0\n",
                   "    if [ \"$ROUTE_HEALTHY\" == \"0\" ]; then\n",
                   "      echo \"$(date) -- Other VPN heartbeat failed, taking over $VPN_RT_ID default route\"\n",
                   "      aws ec2 replace-route --region \"${REGION}\" --route-table-id \"${VPN_ROUTETABLE_ID}\" --destination-cidr-block \"${VPN_CIDR}\" --instance-id \"${INSTANCE_ID}\"\n",
                   "      ROUTE_HEALTHY=1\n",
                   "    fi\n",
                   "    # Terminate unhealthy instance\n",
                   "    echo \"$(date) -- Terminating unhealthy instance: ${VPN_ID}\"\n",
                   "    aws ec2 terminate-instances --instance-ids \"${VPN_ID}\" --region \"${REGION}\"\n",
                   "    echo \"$(date) -- Waiting for new instance to come up in ASG: ${ASG_NAME}\"\n",
                   "    HEALTH_INSTANCE_COUNT=0\n",
                   "    while [ \"${HEALTH_INSTANCE_COUNT}\" == \"0\" ]; do\n",
                   "      HEALTH_INSTANCE_COUNT=$(aws autoscaling describe-auto-scaling-groups --region \"${REGION}\" | jq -r \".AutoScalingGroups[] | select(.AutoScalingGroupName==\\\"${ASG_NAME}\\\") | .Instances | select(.[].HealthStatus==\\\"Healthy\\\") | length\")\n",
                   "      sleep ${WAIT_FOR_INSTANCE_RESTART}\n",
                   "    done\n",
                   "    echo \"$(date) -- Finished. Newly created instance should be up and running\"\n",
                   "  else\n",
                   "    sleep ${WAIT_BETWEEN_CHECKS}\n",
                   "  fi\n",
                   "done\n"
                 ]]},
                 "mode"  : "000700",
                 "owner" : "root",
                 "group" : "root"
               },
               "/etc/ipsec.d/site-to-site.conf" : {
                 "content": { "Fn::Join" : ["", [
                   "conn site-to-site\n",
                   "    left=%defaultroute\n",
                   "    leftid=@",
                         { "Ref" : "product" }, "-",
                         { "Ref" : "regionIata" }, "-",
                         { "Ref" : "environment" }, "-right.", { "Ref" : "dnsNameExt" } ,"\n",
                   "    leftnexthop=%defaultroute\n",
                   "    leftsubnet=", { "Ref": "VpcCidr" },"\n",
                   "    right=",
                         { "Ref" : "product" }, "-",
                         { "Ref" : "remoteRegionIata" }, "-",
                         { "Ref" : "environment" }, "-right.", { "Ref" : "dnsNameExt" } ,"\n",
                   "    rightid=@",
                         { "Ref" : "product" }, "-",
                         { "Ref" : "remoteRegionIata" }, "-",
                         { "Ref" : "environment" }, "-right.", { "Ref" : "dnsNameExt" } ,"\n",
                   "    rightsubnet=", { "Ref": "remoteVpcCidr" },"\n",
                   "    authby=secret\n",
                   "    auto=start\n",
                   "    dpdaction=clear\n",
                   "    dpddelay=10\n",
                   "    dpdtimeout=90\n",
                   "    forceencaps=yes\n",
                   "    pfs=no\n",
                   "    type=tunnel\n"
                 ]]}
               },
               "/etc/sysctl.d/nat.conf" : {
                 "content": { "Fn::Join" : ["", [
                   "net.ipv4.ip_forward = 1\n",
                   "net.ipv4.conf.default.accept_redirects = 0\n",
                   "net.ipv4.conf.default.send_redirects = 0\n",
                   "net.ipv4.conf.eth0.send_redirects = 0\n",
                   "net.ipv4.conf.eth0.accept_redirects = 0\n"
                 ]]}
               },
               "/etc/ipsec.d/site-to-site.secrets" : {
                 "content": { "Fn::Join" : ["", [
                   { "Ref" : "product" }, "-",
                   { "Ref" : "regionIata" }, "-",
                   { "Ref" : "environment" }, "-right.", { "Ref" : "dnsNameExt" },
                   " ",
                   { "Ref" : "product" }, "-",
                   { "Ref" : "remoteRegionIata" }, "-",
                   { "Ref" : "environment" }, "-right.", { "Ref" : "dnsNameExt" },
                   "\n",
                   " @",
                   { "Ref" : "product" }, "-",
                   { "Ref" : "regionIata" }, "-",
                   { "Ref" : "environment" }, "-right.", { "Ref" : "dnsNameExt" },
                   " @",
                   { "Ref" : "product" }, "-",
                   { "Ref" : "remoteRegionIata" }, "-",
                   { "Ref" : "environment" }, "-right.", { "Ref" : "dnsNameExt" },
                   ": PSK \"The occupation of the Malheur National Wildlife Refuge was haphazard and chaotic\"\n"
                 ]]},
                 "mode"  : "000400",
                 "owner" : "root",
                 "group" : "root"
               },
               "/etc/ipsec.conf": {
                 "content": { "Fn::Join" : ["", [
                   "version 2.0\n",
                   "config setup\n",
                   "    protostack=netkey\n",
                   "    nat_traversal=yes\n",
                   "    virtual_private=\n",
                   "    oe=off\n",
                   "    plutostderrlog=/var/log/pluto.log\n",
                   "include /etc/ipsec.d/*.conf\n"
                 ]]}
               },
               "/usr/local/bin/vpn_prepare.sh" : {
                 "content": { "Fn::Join" : ["", [
                   "#!/bin/bash -x\n",
                   "yum update -y aws*\n",
                   ". /etc/profile.d/aws-apitools-common.sh\n",

                   "# Configure iptables\n",
                   "/sbin/iptables -t nat -C POSTROUTING -o eth0 -s 0.0.0.0/0 -j MASQUERADE >/dev/null 2>&1\n",
                   "[ $? -ne 0 ] && /sbin/iptables -t nat -A POSTROUTING -o eth0 -s 0.0.0.0/0 -j MASQUERADE\n",
                   "/sbin/iptables-save > /etc/sysconfig/iptables\n",

                   "# Configure ip forwarding and redirects\n",
                   "echo 1 > /proc/sys/net/ipv4/ip_forward\n",
                   "echo 0 > /proc/sys/net/ipv4/conf/eth0/send_redirects\n",
                   "echo 0 > /proc/sys/net/ipv4/conf/eth0/accept_redirects\n",
                   "echo 0 > /proc/sys/net/ipv4/conf/default/accept_redirects\n",
                   "echo 0 > /proc/sys/net/ipv4/conf/default/send_redirects\n"
                 ]]},
                 "mode"  : "000700",
                 "owner" : "root",
                 "group" : "root"
               }
             },
             "commands" : {
               "01_vpn_prepare" : {
                 "command" : "/usr/local/bin/vpn_prepare.sh",
                 "test" : "test -e /usr/local/bin/vpn_prepare.sh"
               }
             }
           },
           "prepare_instance" : {
             "packages": {
               "yum": {
                 "aws-cli": [],
                 "python27-pip": []
               }
             },
             "files" : {
               "/usr/local/bin/disable_source_dest_check.sh": {
                 "content": { "Fn::Join" : ["", [
                   "#!/bin/bash -x\n",
                   ". /etc/profile.d/aws-apitools-common.sh\n",
                   "aws ec2 modify-instance-attribute",
                   " --region ", { "Ref" : "AWS::Region" },
                   " --instance-id",
                   " $(/usr/bin/curl --silent http://169.254.169.254/latest/meta-data/instance-id)",
                   " --no-source-dest-check\n"
                 ]]},
                 "mode"  : "000700",
                 "owner" : "root",
                 "group" : "root"
               },
               "/usr/local/bin/configure_vpn_route.sh": {
                 "content": { "Fn::Join" : ["", [
                   "#!/bin/bash -x\n",
                   ". /etc/profile.d/aws-apitools-common.sh\n",

                   "EC2_URL=\"https://ec2.", { "Ref" : "AWS::Region" }, ".amazonaws.com\"\n",
                   "LOCAL_ROUTETABLE_ID=", { "Ref" : "PrivateRouteTable2" }, "\n",
                   "REMOTE_CIDR=", { "Ref": "remoteVpcCidr" }, "\n",
                   "INSTANCE_ID=$(/usr/bin/curl --silent http://169.254.169.254/latest/meta-data/instance-id)\n",

                   "echo \"Adding this instance to ${LOCAL_ROUTETABLE_ID} for ${REMOTE_CIDR} route on instance start\"\n",
                   "/opt/aws/bin/ec2-replace-route ${LOCAL_ROUTETABLE_ID} -r ${REMOTE_CIDR} -i ${INSTANCE_ID} -U ${EC2_URL}\n",
                   "EXITCODE=$?\n",

                   "if [ \"$EXITCODE\" != \"0\" ]; then\n",
                   "  echo \"Route doesn't exist. Creating new one...\"\n",
                   "  /opt/aws/bin/ec2-create-route ${LOCAL_ROUTETABLE_ID} -r ${REMOTE_CIDR} -i ${INSTANCE_ID} -U ${EC2_URL}\n",
                   "  EXITCODE=$?\n",
                   "fi\n",

                   "exit $EXITCODE\n"
                 ]]},
                 "mode"  : "000700",
                 "owner" : "root",
                 "group" : "root"
               },
               "/tmp/authorized_keys.new" : {
                 "content" : { "Fn::Join" : [ "\n" , { "Ref" : "sshUserKeys" } ] }
               },
               "/opt/appdynamics/machineagent/machineagent.sh" : {
                 "content": { "Fn::Join" : ["", [
                   "#!/bin/sh\n",
                   "nohup java -Xmx100m -XX:PermSize=20m",
                   " -Dappdynamics.agent.applicationName=",{ "Ref" : "appDAppName" },
                   " -Dappdynamics.agent.tierName=",{ "Ref" : "appDTierName" },
                   " -Dappdynamics.agent.nodeName=$(hostname)",
                   " -Dappdynamics.agent.accountName=",{ "Ref" : "appDAcctName" },
                   " -Dappdynamics.controller.hostName=",{ "Ref" : "appDContHost" },
                   " -Dappdynamics.controller.port=",{ "Ref" : "appDContPort" },
                   " -Dappdynamics.controller.ssl.enabled=",{ "Ref" : "appDContSslEnabled" },
                   " -Dappdynamics.agent.accountAccessKey=",{ "Ref" : "appDAccessKey" },
                   " -jar /opt/appdynamics/machineagent/machineagent-",{ "Ref" : "appDVersionNo" },"/machineagent.jar >/dev/null 2>&1 &\n"
                 ]]},
                 "mode"  : "000700",
                 "owner" : "root",
                 "group" : "root"
               },
               "/usr/local/bin/update_authorized_keys.sh" : {
                 "content" : { "Fn::Join" : ["", [
                   "#!/bin/bash -x\n",
                   "# install authorized_keys\n",
                   "[ ! -e /home/ec2-user/.ssh/authorized_keys.orig ] &&",
                   " cp /home/ec2-user/.ssh/authorized_keys /home/ec2-user/.ssh/authorized_keys.orig\n",
                   "[ -e /home/ec2-user/.ssh/authorized_keys.orig -a -e /tmp/authorized_keys.new ] &&",
                   " paste -d'\\n' /tmp/authorized_keys.new /home/ec2-user/.ssh/authorized_keys.orig | sed '/^$/d' > /home/ec2-user/.ssh/authorized_keys\n",
                   "if [ -e /home/ec2-user/.ssh/authorized_keys ]; then\n",
                   "  chmod 600 /home/ec2-user/.ssh/authorized_keys\n",
                   "  chown ec2-user: /home/ec2-user/.ssh/authorized_keys\n",
                   "fi\n",
                   "[ -e /tmp/authorized_keys.new ] && rm -f /tmp/authorized_keys.new\n"
                 ]]},
                 "mode"  : "000700",
                 "owner" : "root",
                 "group" : "root"
               },
               "/usr/local/bin/install_machineagent.sh" : {
                 "content" : { "Fn::Join" : ["", [
                   "#!/bin/bash -x\n",
                   "pip install awscli\n",
                   "# INITIALIZE\n",
                   "runningVersion=$(pgrep -l -f machineagent.jar | sed 's#.*machineagent-\\([0-9.]*\\)\\/.*#\\1#')\n",
                   "nextVersion=",{"Ref":"appDVersionNo"},"\n",
                   "execFile=/opt/appdynamics/machineagent/machineagent.sh\n",
                   "execFileMd5=/opt/appdynamics/machineagent/machineagent.sh.md5\n",
                   "mkdir -p /opt/appdynamics/machineagent\n",
                   "restart_machineagent() {\n",
                   "  [ ! -z \"${runningVersion}\" ] && pkill -9 -f machineagent.jar\n",
                   "  md5sum ${execFile} > ${execFileMd5}\n",
                   "  ${execFile}\n",
                   "}\n",
                   "# (re)INSTALL MACHINEAGENT AND RESTART\n",
                   "if [ \"${runningVersion}\" != \"${nextVersion}\" ]; then\n",
                   "  [ ! -z \"${runningVersion}\" ] && pkill -9 -f machineagent.jar\n",
                   "  rm -rf /opt/appdynamics/machineagent/machineagent-*\n",
                   "  mkdir -p /opt/appdynamics/machineagent/machineagent-${nextVersion}\n",
                   "  /usr/bin/aws s3 cp '",{ "Ref" : "appDS3Url" },"' - | tar -xz -C /opt/appdynamics/machineagent/machineagent-${nextVersion}\n",
                   "  md5sum ${execFile} > ${execFileMd5}\n",
                   "  ${execFile}\n",
                   "fi\n",
                   "# RESTART IF CONFIGURATION HAS CHANGED\n",
                   "if [ -e ${execFileMd5} ]; then\n",
                   "  md5sum --status -c ${execFileMd5}\n",
                   "  if [ $? -ne 0 ]; then\n",
                   "    restart_machineagent\n",
                   "  else\n",
                   "    exit 0\n",
                   "  fi\n",
                   "else\n",
                   "  restart_machineagent\n",
                   "fi\n"
                 ]]},
                 "mode"  : "000700",
                 "owner" : "root",
                 "group" : "root"
               }
             },
             "commands" : {
               "01_update_authorized_keys": {
                 "command" : "/usr/local/bin/update_authorized_keys.sh",
                 "test" : "test -e /usr/local/bin/update_authorized_keys.sh"
               },
               "02_disable_source_dest_check": {
                 "command": "/usr/local/bin/disable_source_dest_check.sh",
                 "test": "test -e /usr/local/bin/disable_source_dest_check.sh"
               },
               "03_configure_vpn_route": {
                 "command": "/usr/local/bin/configure_vpn_route.sh",
                 "test": "test -e /usr/local/bin/configure_vpn_route.sh"
               },
               "04_install_machineagent": {
                 "command" : "/usr/local/bin/install_machineagent.sh",
                 "test" : { "Fn::Join" : ["", ["x=", { "Ref" : "appDynamicEnabled"},"; if [ $x == 'y' ]; then exit 0; else exit 1; fi"]]}
               }
             }
           },
           "update_route53": {
             "packages": {
               "yum": {
                 "ec2-net-utils": [],
                 "jq": []
               }
             },
             "files": {
               "/usr/local/bin/update_route53_record.sh" : {
                 "content" : { "Fn::Join" : ["", [
                   "#!/bin/bash -ex\n",

                   "REGION=", { "Ref": "AWS::Region" },"\n",
                   "HOSTED_ZONE_ID=", { "Ref": "hostedZoneId" } ,"\n",
                   "PUBLIC_IP=$(curl -s http://169.254.169.254/latest/meta-data/public-ipv4)\n",

                   "cat <<EOF > /tmp/update-record.json\n",
                   "{ \"Changes\": [{\n",
                   "    \"Action\": \"UPSERT\",\n",
                   "    \"ResourceRecordSet\": {\n",
                   "      \"Name\": \"", { "Ref" : "product" }, "-", { "Ref" : "regionIata" }, "-", { "Ref" : "environment" }, "-right.", { "Ref" : "dnsNameExt" },"\",\n",
                   "      \"Type\": \"A\",\n",
                   "      \"TTL\": 5,\n",
                   "      \"ResourceRecords\": [{ \"Value\": \"${PUBLIC_IP}\" }]\n",
                   "    }\n",
                   "}]}\n",
                   "EOF\n",

                   "aws route53 change-resource-record-sets",
                   " --region ${REGION}",
                   " --hosted-zone-id ${HOSTED_ZONE_ID}",
                   " --change-batch file:///tmp/update-record.json\n"
                 ]]},
                 "mode"  : "000700",
                 "owner" : "root",
                 "group" : "root"
               }
             },
             "commands": {
               "01_update_route53" : {
                 "command" : "/usr/local/bin/update_route53_record.sh",
                 "test" : "test -e /usr/local/bin/update_route53_record.sh"
               }
             }
           }
         }
       },
       "Properties" : {
          "AssociatePublicIpAddress": true,
          "IamInstanceProfile": { "Ref": "VPNRoleProfile" },
          "ImageId" : { "Fn::FindInMap" : [ "AWSVPNAMI", { "Ref" : "AWS::Region" }, "AMI" ]},
          "InstanceType": { "Ref" : "VPNNodeInstanceType" },
          "KeyName" : { "Ref" : "vpcSshKeyName" },
          "SecurityGroups": [ { "Ref": "sgVPN" } ],
          "UserData": { "Fn::Base64": {"Fn::Join": [ "", [
            "#!/bin/bash -x\n",
            "yum install -y aws-cfn-bootstrap\n",
            ". /etc/profile.d/aws-apitools-common.sh\n",

            "EC2_URL=\"https://ec2.", { "Ref" : "AWS::Region" }, ".amazonaws.com\"\n",
            "LOCAL_ROUTETABLE_ID=", { "Ref" : "PrivateRouteTable2" }, "\n",
            "REMOTE_CIDR=", { "Ref": "remoteVpcCidr" }, "\n",
            "INSTANCE_ID=$(/usr/bin/curl --silent http://169.254.169.254/latest/meta-data/instance-id)\n",

            "echo \"Adding this instance to ${LOCAL_ROUTETABLE_ID} for ${REMOTE_CIDR} route on instance start\"\n",
            "/opt/aws/bin/ec2-replace-route ${LOCAL_ROUTETABLE_ID} -r ${REMOTE_CIDR} -i ${INSTANCE_ID} -U ${EC2_URL}\n",
            "EXITCODE=$?\n",

            "if [ \"$EXITCODE\" != \"0\" ]; then\n",
            "  echo \"Route doesn't exist. Creating new one...\"\n",
            "  /opt/aws/bin/ec2-create-route ${LOCAL_ROUTETABLE_ID} -r ${REMOTE_CIDR} -i ${INSTANCE_ID} -U ${EC2_URL}\n",
            "  EXITCODE=$?\n",
            "fi\n",

            "# Helper function\n",
            "function error_exit\n",
            "{\n",
            "  /opt/aws/bin/cfn-signal -e 1 -r \"$1\" '", { "Ref" : "WaitHandle" }, "'\n",
            "  exit 1\n",
            "}\n",

            "# Run commands\n",
            "/opt/aws/bin/cfn-init",
            "  -s ", { "Ref" : "AWS::StackId" },
            "  -r LaunchConfigVPN2 ",
            "  --configsets default ",
            "  --region ", { "Ref" : "AWS::Region" }, "|| error_exit \"failed to run cfn-init (first run)\"\n",

            "# Start up the cfn-hup daemon to listen for changes\n",
            "/opt/aws/bin/cfn-hup || error_exit 'Failed to start cfn-hup'\n",

            "# All is well so signal success\n",
            "/opt/aws/bin/cfn-signal",
            "  -e $? '", { "Ref" : "WaitHandle" }, "'\n"
          ]]}}
       }
    },

    "vpnASG2": {
      "Type" : "AWS::AutoScaling::AutoScalingGroup",
      "DependsOn" : ["LaunchConfigVPN2"],
      "Properties" : {
        "VPCZoneIdentifier" : [ { "Ref" : "PublicSubnet2" } ],
        "LaunchConfigurationName" : { "Ref" : "LaunchConfigVPN2" },
        "MinSize" : "1",
        "MaxSize" : "1",
        "Tags" : [
          {
            "Key" : "Name",
            "Value" : { "Fn::Join" : [ "-" , [ { "Ref" : "product" }, { "Ref" : "regionIata" }, { "Ref" : "environment" }, "right" ]]},
            "PropagateAtLaunch" : "true"
          },
          {
            "Key" : "costCenter",
            "Value" : { "Ref" : "costCenter" },
            "PropagateAtLaunch" : "true"
          },
          {
            "Key" : "class",
            "Value" : "vpn",
            "PropagateAtLaunch" : "true"
          },
          {
            "Key" : "env",
            "Value" : { "Ref" : "environment" },
            "PropagateAtLaunch" : "true"
          },
          {
            "Key" : "Application",
            "Value" : { "Ref" : "AWS::StackId" },
            "PropagateAtLaunch" : "true"
          },
          {
            "Key" : "techContact",
            "Value" : { "Ref" : "techContact" },
            "PropagateAtLaunch" : "true"
          }
        ],
        "NotificationConfigurations" : [{
          "Fn::If": [ "vpnEventSubscriptionEnabled",
            {
              "TopicARN" : { "Ref" : "vpnSnsTopic" },
              "NotificationTypes" : ["autoscaling:EC2_INSTANCE_LAUNCH","autoscaling:EC2_INSTANCE_LAUNCH_ERROR","autoscaling:EC2_INSTANCE_TERMINATE","autoscaling:EC2_INSTANCE_TERMINATE_ERROR"]
            },
            { "Ref": "AWS::NoValue" }
          ]
        }]
      }
    },

    "WaitHandle" : {
      "Type" : "AWS::CloudFormation::WaitConditionHandle"
    },

    "WaitCondition" : {
      "Type" : "AWS::CloudFormation::WaitCondition",
      "DependsOn" : ["LaunchConfigVPN1","LaunchConfigVPN2"],
      "Properties" : {
        "Handle" : {"Ref" : "WaitHandle"},
        "Timeout" : "900"
      }
    },

    "sgVPN" : {
      "Type" : "AWS::EC2::SecurityGroup",
      "Properties" : {
        "GroupDescription" : "Rules for allowing access to HA Nodes",
        "VpcId" : { "Ref" : "VPC" },
        "SecurityGroupIngress" : [
           {
             "IpProtocol": "tcp",
             "FromPort": "500",
             "ToPort": "500",
             "CidrIp": "0.0.0.0/0"
           },
           {
             "IpProtocol": "udp",
             "FromPort": "500",
             "ToPort": "500",
             "CidrIp": "0.0.0.0/0"
           },
           {
             "IpProtocol": "udp",
             "FromPort": "4500",
             "ToPort": "4500",
             "CidrIp": "0.0.0.0/0"
           },
           {
             "IpProtocol": "-1",
             "FromPort": "0",
             "ToPort": "65535",
             "CidrIp": { "Ref" : "VpcCidr" }
           },
           {
             "IpProtocol": "-1",
             "FromPort": "0",
             "ToPort": "65535",
             "CidrIp": { "Ref" : "remoteVpcCidr" }
           }
        ],
        "SecurityGroupEgress" : [
           {
             "IpProtocol" : "-1",
             "FromPort" : "0",
             "ToPort" : "65535",
             "CidrIp" : "0.0.0.0/0"
           }
        ]
      }
    }
  },
  "Conditions": {
    "appDynamicEnabled": { "Fn::Equals": [ { "Ref": "appDynamicEnabled" }, "y" ] },
    "vpnEventSubscriptionEnabled": { "Fn::Equals": [ { "Ref": "vpnEventSubscriptionEnabled" }, "y" ] }
  }
}
