{
  "AWSTemplateFormatVersion": "2010-09-09",
  "Description": "Provision a Elastic Beanstalk application",
  "Parameters": {
    "product": {
        "Description": "Product name, or what the resource is being used for.",
        "Type": "String",
        "MinLength": "1",
        "MaxLength": "255"
    },
    "regionIata": {
      "Type": "String"
    },
    "appName": {
      "Type": "String",
      "Description": "Name of your beanstalk application"
    }
  },
  "Resources": {

    "ebsApp": {
      "Type": "AWS::ElasticBeanstalk::Application",
      "Properties": {
        "ApplicationName": {
          "Fn::Join": [
            "-",
            [
              {
                "Ref": "product"
              },
              {
                "Ref": "regionIata"
              },
              {
                "Ref": "appName"
              }
            ]
          ]
        }
      }
    },

    "ebsAppVersion": {
      "DependsOn": "ebsApp",
      "Type": "AWS::ElasticBeanstalk::ApplicationVersion",
      "Properties": {
        "Description": "Base Version",
        "ApplicationName": {
          "Ref": "ebsApp"
        },
        "SourceBundle": {
          "S3Bucket": {
            "Fn::Join": [
              "-",
              [
                "elasticbeanstalk-samples",
                {
                  "Ref": "AWS::Region"
                }
              ]
            ]
          },
          "S3Key": "docker-sample.zip"
        }
      }
    }
  },
  "Outputs": {
    "appName": {
      "Description": "Name of your beanstalk application",
      "Value": {
        "Ref": "appName"
      }
    },
    "ebsApp": {
      "Description": "Elastic Beanstalk Application",
      "Value": {
        "Ref": "ebsApp"
      }
    },
    "ebsAppVersion": {
      "Description": "Elastic Beanstalk Base Version",
      "Value": {
        "Ref": "ebsAppVersion"
      }
    }
  }
}
